C:\Library\library\book-library\src\main\java\com\cts\book\controller\BookController.java
C:\Library\library\book-library\src\main\java\com\cts\book\entity\Book.java
C:\Library\library\book-library\src\main\java\com\cts\book\repository\BookRepository.java
C:\Library\library\book-library\src\main\java\com\cts\book\BookApplication.java
